com/cucumber/framework/helper/PageObject/GeneralSettingsPageObject.class
com/cucumber/framework/helper/PageObject/ShareAppLinkPageObject.class
com/cucumber/framework/utility/ExcelUtils.class
com/cucumber/framework/helper/PageObject/UsersPageObject.class
com/cucumber/framework/listeners/reportlistener/CucumberReport$1.class
com/cucumber/framework/helper/PageObject/MasterAppSettingPageObject.class
com/cucumber/framework/settings/GridLocator.class
com/cucumber/framework/helper/Logger/LoggerHelper.class
com/cucumber/framework/configuration/browser/IExploreBrowser.class
com/cucumber/framework/helper/Alert/AlertHelper.class
com/cucumber/framework/helper/PageObject/ProcedurePageObject.class
com/cucumber/framework/helper/PageObject/UserActivityPageObject.class
com/cucumber/framework/helper/Browser/BrowserHelper.class
com/cucumber/framework/configuration/browser/BrowserType.class
com/cucumber/framework/helper/InitializeWebDrive$1.class
com/cucumber/framework/interfaces/IconfigReader.class
com/cucumber/framework/helper/PageObject/MyProfilePageObject.class
com/cucumber/framework/utility/Utility.class
com/cucumber/framework/configreader/PropertyFileReader.class
com/cucumber/framework/helper/PageObject/SetsPageObject.class
com/cucumber/framework/helper/Copy/Copy.class
com/cucumber/framework/steps/Storage/StepDefinitionsStorage.class
com/cucumber/framework/helper/Button/ButtonHelper.class
com/cucumber/framework/utility/DateTimeHelper.class
com/cucumber/framework/helper/PageObject/SetFrequencyPageObject.class
com/cucumber/framework/utility/Constant.class
com/cucumber/framework/exception/NoSutiableDriverFoundException.class
com/cucumber/framework/helper/PageObject/PageBase$2.class
com/cucumber/framework/helper/Wait/WaitHelper$1.class
com/cucumber/framework/listeners/reportlistener/CucumberReport.class
com/cucumber/framework/helper/PageObject/AppBuilderPageObject.class
com/cucumber/framework/helper/PageObject/SitesPageObject.class
com/cucumber/framework/helper/PageObject/AdvancedSearchPageObject.class
com/cucumber/framework/helper/PageObject/CommonFunctionPageObject.class
com/cucumber/framework/helper/Pagination/Pagination.class
TestDemo.class
com/cucumber/framework/helper/PageObject/homepage/HomePage.class
com/cucumber/framework/helper/PageObject/PageBase$1.class
com/cucumber/framework/helper/PageObject/EntityRecordsPageObject.class
com/cucumber/framework/helper/PageObject/ImportDataPageObject.class
com/cucumber/framework/helper/Search/Search.class
com/cucumber/framework/helper/HyperLink/LinkHelper.class
com/cucumber/framework/helper/PageObject/PageBase.class
com/cucumber/framework/helper/PageObject/QuestionsPageObject.class
com/cucumber/framework/helper/Grid/GridHelper.class
com/cucumber/framework/interfaces/IwebComponent.class
com/cucumber/framework/helper/Generic/GenericHelper.class
com/cucumber/framework/helper/Scroll/Scroll.class
com/cucumber/framework/settings/ObjectRepo.class
com/cucumber/framework/helper/Sorting/SortingOnColumn.class
com/cucumber/framework/configuration/browser/HtmlUnitBrowser.class
com/cucumber/framework/helper/Helper$2.class
com/cucumber/framework/helper/PageObject/GroupSettingsPageObject.class
com/cucumber/framework/helper/PageObject/EntitiesPageObject.class
com/cucumber/framework/helper/InitializeWebDrive.class
com/cucumber/framework/helper/Javascript/JavaScriptHelper.class
com/cucumber/framework/helper/CheckBox/CheckBoxOrRadioButtonHelper.class
com/cucumber/framework/helper/PageObject/LoginPageObject.class
com/cucumber/framework/helper/PageObject/itemsbag/ItemsBag.class
com/cucumber/framework/helper/PageObject/SmartAlertsPageObject.class
com/cucumber/framework/configuration/browser/ChromeBrowser.class
com/cucumber/framework/helper/PageObject/PaginationPageObject.class
com/cucumber/framework/configuration/browser/FirefoxBrowser.class
com/cucumber/framework/helper/PageObject/userdetails/Userdetails.class
com/cucumber/framework/helper/DropDown/DropDownHelper.class
com/cucumber/framework/helper/PageObject/AttributesPageObject.class
com/cucumber/framework/helper/Wait/WaitHelper.class
com/cucumber/framework/configuration/browser/PhantomJsBrowser.class
com/cucumber/framework/helper/Helper$1.class
com/cucumber/framework/utility/ResourceHelper.class
com/cucumber/framework/helper/Helper.class
com/cucumber/framework/helper/TextBox/TextBoxHelper.class
com/cucumber/framework/helper/DatePicker/Datepicker.class
com/cucumber/framework/helper/Navigation/NavigationHelper.class
