com/cucumber/framework/stepdefinition/ShareAppLink.class
com/cucumber/framework/stepdefinition/AppBuilder.class
com/cucumber/framework/runner/SitesRunner.class
com/cucumber/framework/runner/TabletFeatureRunner.class
com/cucumber/framework/runner/AdvancedSearchRunner.class
com/cucumber/framework/runner/TestDemoRunner.class
com/cucumber/framework/stepdefinition/Sets.class
com/cucumber/framework/stepdefinition/GeneralSettings.class
com/cucumber/framework/runner/SearchFeatureRunner.class
com/cucumber/framework/runner/SetFrequencyRunner.class
com/cucumber/framework/runner/ImportDataRunner.class
com/cucumber/framework/stepdefinition/ImportData.class
com/cucumber/framework/stepdefinition/EntityRecords.class
com/cucumber/framework/runner/ShareAppLinkRunner.class
com/cucumber/framework/stepdefinition/AdvancedSearch.class
com/cucumber/framework/stepdefinition/SetFrequency.class
com/cucumber/framework/stepdefinition/Users.class
com/cucumber/framework/runner/AttributesRunner.class
com/cucumber/framework/stepdefinition/SearchStepDfn.class
com/cucumber/framework/stepdefinition/Questions.class
com/cucumber/framework/stepdefinition/MyProfile.class
com/cucumber/framework/runner/GroupSettingsRunner.class
com/cucumber/framework/runner/EntitiesRunner.class
com/cucumber/framework/runner/GeneralSettingsRunner.class
com/cucumber/framework/stepdefinition/Login.class
com/cucumber/framework/stepdefinition/GroupSettings.class
com/cucumber/framework/runner/EntityRecordsRunner.class
com/cucumber/framework/runner/LaptopFeatureRunner.class
com/cucumber/framework/stepdefinition/Attributes.class
com/cucumber/framework/stepdefinition/SmartAlerts.class
com/cucumber/framework/stepdefinition/Sites.class
com/cucumber/framework/stepdefinition/UserActivity.class
com/cucumber/framework/runner/SmartAlertsRunner.class
com/cucumber/framework/runner/AppBuilderRunner.class
com/cucumber/framework/runner/QuestionsRunner.class
com/cucumber/framework/stepdefinition/Pagination.class
com/cucumber/framework/runner/MasterAppSettingRunner.class
com/cucumber/framework/runner/ProcedureRunner.class
com/cucumber/framework/stepdefinition/LaptopCart.class
com/cucumber/framework/stepdefinition/SearchWithFilter.class
com/cucumber/framework/stepdefinition/Procedure.class
com/cucumber/framework/runner/SearchWithFilterRunner.class
com/cucumber/framework/stepdefinition/TestDemo.class
com/cucumber/framework/stepdefinition/MasterAppSetting.class
com/cucumber/framework/runner/MyProfileRunner.class
com/cucumber/framework/stepdefinition/CommonFunctions.class
com/cucumber/framework/runner/UserActivityRunner.class
com/cucumber/framework/runner/LoginRunner.class
com/cucumber/framework/runner/SetsRunner.class
com/cucumber/framework/runner/UsersRunner.class
com/cucumber/framework/stepdefinition/Entities.class
